EESchema Schematic File Version 4
EELAYER 30 0
EELAYER END
$Descr A4 11693 8268
encoding utf-8
Sheet 1 1
Title ""
Date ""
Rev ""
Comp ""
Comment1 ""
Comment2 ""
Comment3 ""
Comment4 ""
$EndDescr
$Comp
L rs485_socket-rescue:STM32F103C8Tx-MCU_ST_STM32F1 U1
U 1 1 5D5548E5
P 2500 2650
F 0 "U1" H 2450 1064 50  0000 C CNN
F 1 "STM32F103C8Tx" H 2450 973 50  0000 C CNN
F 2 "Package_QFP:LQFP-48_7x7mm_P0.5mm" H 1900 1250 50  0001 R CNN
F 3 "http://www.st.com/st-web-ui/static/active/en/resource/technical/document/datasheet/CD00161566.pdf" H 2500 2650 50  0001 C CNN
	1    2500 2650
	1    0    0    -1  
$EndComp
$Comp
L rs485_socket-rescue:RJ45_LED_Shielded-Connector J3
U 1 1 5D554B09
P 6500 2000
F 0 "J3" V 6454 2529 50  0000 L CNN
F 1 "RJ45_LED_Shielded" V 6545 2529 50  0000 L CNN
F 2 "Connector_RJ:RJ45_Amphenol_RJHSE538X" V 6500 2025 50  0001 C CNN
F 3 "~" V 6500 2025 50  0001 C CNN
	1    6500 2000
	0    1    1    0   
$EndComp
$Comp
L rs485_socket-rescue:GND-power #PWR013
U 1 1 5D554CEE
P 6000 2000
F 0 "#PWR013" H 6000 1750 50  0001 C CNN
F 1 "GND" H 6005 1827 50  0000 C CNN
F 2 "" H 6000 2000 50  0001 C CNN
F 3 "" H 6000 2000 50  0001 C CNN
	1    6000 2000
	1    0    0    -1  
$EndComp
$Comp
L rs485_socket-rescue:GND-power #PWR020
U 1 1 5D554D16
P 7050 1450
F 0 "#PWR020" H 7050 1200 50  0001 C CNN
F 1 "GND" H 7055 1277 50  0000 C CNN
F 2 "" H 7050 1450 50  0001 C CNN
F 3 "" H 7050 1450 50  0001 C CNN
	1    7050 1450
	1    0    0    -1  
$EndComp
$Comp
L rs485_socket-rescue:R-Device R4
U 1 1 5D554EB3
P 6200 1300
F 0 "R4" H 6270 1346 50  0000 L CNN
F 1 "300" H 6270 1255 50  0000 L CNN
F 2 "Resistor_SMD:R_0805_2012Metric" V 6130 1300 50  0001 C CNN
F 3 "~" H 6200 1300 50  0001 C CNN
	1    6200 1300
	1    0    0    -1  
$EndComp
Wire Wire Line
	6800 1600 6800 1450
Text GLabel 6200 1050 1    50   Input ~ 0
RS_ACT_LED
Wire Wire Line
	6200 1150 6200 1050
Wire Wire Line
	2300 1150 2400 1150
Connection ~ 2400 1150
Wire Wire Line
	2400 1150 2500 1150
Connection ~ 2500 1150
Wire Wire Line
	2500 1150 2600 1150
Connection ~ 2600 1150
Wire Wire Line
	2600 1150 2700 1150
$Comp
L rs485_socket-rescue:+3.3V-power #PWR05
U 1 1 5D55565E
P 2500 900
F 0 "#PWR05" H 2500 750 50  0001 C CNN
F 1 "+3.3V" H 2515 1073 50  0000 C CNN
F 2 "" H 2500 900 50  0001 C CNN
F 3 "" H 2500 900 50  0001 C CNN
	1    2500 900 
	1    0    0    -1  
$EndComp
Wire Wire Line
	2500 900  2500 1150
Wire Wire Line
	2300 4150 2400 4150
Connection ~ 2400 4150
Wire Wire Line
	2400 4150 2500 4150
Connection ~ 2500 4150
Wire Wire Line
	2500 4150 2600 4150
$Comp
L rs485_socket-rescue:GND-power #PWR04
U 1 1 5D5557AD
P 2400 4500
F 0 "#PWR04" H 2400 4250 50  0001 C CNN
F 1 "GND" H 2405 4327 50  0000 C CNN
F 2 "" H 2400 4500 50  0001 C CNN
F 3 "" H 2400 4500 50  0001 C CNN
	1    2400 4500
	1    0    0    -1  
$EndComp
Wire Wire Line
	2400 4150 2400 4500
$Comp
L rs485_socket-rescue:Crystal-Device Y1
U 1 1 5D5558DD
P 1200 1750
F 0 "Y1" H 1200 2018 50  0000 C CNN
F 1 "8MHz" H 1200 1927 50  0000 C CNN
F 2 "Crystal:Crystal_SMD_HC49-SD" H 1200 1750 50  0001 C CNN
F 3 "~" H 1200 1750 50  0001 C CNN
	1    1200 1750
	1    0    0    -1  
$EndComp
Wire Wire Line
	1350 1750 1400 1750
Wire Wire Line
	1050 1750 1050 1900
Wire Wire Line
	1050 1900 1800 1900
Wire Wire Line
	1800 1900 1800 1850
$Comp
L rs485_socket-rescue:C-Device C1
U 1 1 5D555C89
P 850 1600
F 0 "C1" H 965 1646 50  0000 L CNN
F 1 "22pF" H 965 1555 50  0000 L CNN
F 2 "Capacitor_SMD:C_0805_2012Metric" H 888 1450 50  0001 C CNN
F 3 "~" H 850 1600 50  0001 C CNN
	1    850  1600
	1    0    0    -1  
$EndComp
$Comp
L rs485_socket-rescue:C-Device C2
U 1 1 5D555CEC
P 1400 1600
F 0 "C2" H 1515 1646 50  0000 L CNN
F 1 "22pF" H 1515 1555 50  0000 L CNN
F 2 "Capacitor_SMD:C_0805_2012Metric" H 1438 1450 50  0001 C CNN
F 3 "~" H 1400 1600 50  0001 C CNN
	1    1400 1600
	1    0    0    -1  
$EndComp
Connection ~ 1400 1750
Wire Wire Line
	1400 1750 1800 1750
Wire Wire Line
	850  1750 1050 1750
Connection ~ 1050 1750
$Comp
L rs485_socket-rescue:GND-power #PWR01
U 1 1 5D55655B
P 600 1450
F 0 "#PWR01" H 600 1200 50  0001 C CNN
F 1 "GND" H 605 1277 50  0000 C CNN
F 2 "" H 600 1450 50  0001 C CNN
F 3 "" H 600 1450 50  0001 C CNN
	1    600  1450
	1    0    0    -1  
$EndComp
Wire Wire Line
	600  1450 850  1450
Wire Wire Line
	850  1450 1400 1450
Connection ~ 850  1450
$Comp
L rs485_socket-rescue:MP2451-Regulator_Switching U4
U 1 1 5D561272
P 8850 1100
F 0 "U4" H 8825 1165 50  0000 C CNN
F 1 "MP2451" H 8825 1074 50  0000 C CNN
F 2 "Package_TO_SOT_SMD:SOT-23-6" H 8850 1100 50  0001 C CNN
F 3 "" H 8850 1100 50  0001 C CNN
	1    8850 1100
	1    0    0    -1  
$EndComp
$Comp
L rs485_socket-rescue:C-Device C8
U 1 1 5D5614B3
P 8250 1150
F 0 "C8" H 8365 1196 50  0000 L CNN
F 1 "100nF" H 8365 1105 50  0000 L CNN
F 2 "Capacitor_SMD:C_0805_2012Metric" H 8288 1000 50  0001 C CNN
F 3 "~" H 8250 1150 50  0001 C CNN
	1    8250 1150
	1    0    0    -1  
$EndComp
Wire Wire Line
	9150 1000 9150 1300
$Comp
L rs485_socket-rescue:INDUCTOR-pspice L1
U 1 1 5D5621C0
P 10000 1300
F 0 "L1" H 10000 1515 50  0000 C CNN
F 1 "2.2uH" H 10000 1424 50  0000 C CNN
F 2 "Inductor_SMD:L_Taiyo-Yuden_MD-3030" H 10000 1300 50  0001 C CNN
F 3 "~" H 10000 1300 50  0001 C CNN
	1    10000 1300
	1    0    0    -1  
$EndComp
$Comp
L rs485_socket-rescue:+3.3V-power #PWR038
U 1 1 5D562954
P 10550 900
F 0 "#PWR038" H 10550 750 50  0001 C CNN
F 1 "+3.3V" H 10565 1073 50  0000 C CNN
F 2 "" H 10550 900 50  0001 C CNN
F 3 "" H 10550 900 50  0001 C CNN
	1    10550 900 
	1    0    0    -1  
$EndComp
$Comp
L rs485_socket-rescue:C-Device C13
U 1 1 5D562CF2
P 10250 1450
F 0 "C13" H 10365 1496 50  0000 L CNN
F 1 "10uF" H 10365 1405 50  0000 L CNN
F 2 "Capacitor_SMD:C_1206_3216Metric" H 10288 1300 50  0001 C CNN
F 3 "~" H 10250 1450 50  0001 C CNN
	1    10250 1450
	1    0    0    -1  
$EndComp
$Comp
L rs485_socket-rescue:R-Device R13
U 1 1 5D563117
P 8500 1950
F 0 "R13" H 8570 1996 50  0000 L CNN
F 1 "130K" H 8570 1905 50  0000 L CNN
F 2 "Resistor_SMD:R_0805_2012Metric" V 8430 1950 50  0001 C CNN
F 3 "~" H 8500 1950 50  0001 C CNN
	1    8500 1950
	1    0    0    -1  
$EndComp
$Comp
L rs485_socket-rescue:R-Device R10
U 1 1 5D56323E
P 8150 1950
F 0 "R10" H 8220 1996 50  0000 L CNN
F 1 "37.4K" H 8220 1905 50  0000 L CNN
F 2 "Resistor_SMD:R_0805_2012Metric" V 8080 1950 50  0001 C CNN
F 3 "~" H 8150 1950 50  0001 C CNN
	1    8150 1950
	1    0    0    -1  
$EndComp
$Comp
L rs485_socket-rescue:C-Device C11
U 1 1 5D5632DD
P 8900 1950
F 0 "C11" H 9015 1996 50  0000 L CNN
F 1 "33pF" H 9015 1905 50  0000 L CNN
F 2 "Capacitor_SMD:C_0805_2012Metric" H 8938 1800 50  0001 C CNN
F 3 "~" H 8900 1950 50  0001 C CNN
	1    8900 1950
	1    0    0    -1  
$EndComp
Wire Wire Line
	8150 1800 8500 1800
Connection ~ 8500 1800
Wire Wire Line
	8500 1600 8500 1800
Wire Wire Line
	10550 2100 10550 1300
$Comp
L rs485_socket-rescue:GND-power #PWR024
U 1 1 5D5642B7
P 8150 2100
F 0 "#PWR024" H 8150 1850 50  0001 C CNN
F 1 "GND" H 8155 1927 50  0000 C CNN
F 2 "" H 8150 2100 50  0001 C CNN
F 3 "" H 8150 2100 50  0001 C CNN
	1    8150 2100
	1    0    0    -1  
$EndComp
Connection ~ 8900 2100
Wire Wire Line
	8500 2100 8900 2100
Wire Wire Line
	8500 1800 8900 1800
Wire Wire Line
	8250 1000 9150 1000
Wire Wire Line
	8250 1300 8500 1300
$Comp
L rs485_socket-rescue:GND-power #PWR037
U 1 1 5D568620
P 10250 1600
F 0 "#PWR037" H 10250 1350 50  0001 C CNN
F 1 "GND" H 10255 1427 50  0000 C CNN
F 2 "" H 10250 1600 50  0001 C CNN
F 3 "" H 10250 1600 50  0001 C CNN
	1    10250 1600
	1    0    0    -1  
$EndComp
$Comp
L rs485_socket-rescue:GND-power #PWR025
U 1 1 5D56958B
P 8300 1450
F 0 "#PWR025" H 8300 1200 50  0001 C CNN
F 1 "GND" H 8305 1277 50  0000 C CNN
F 2 "" H 8300 1450 50  0001 C CNN
F 3 "" H 8300 1450 50  0001 C CNN
	1    8300 1450
	1    0    0    -1  
$EndComp
Wire Wire Line
	8300 1450 8500 1450
Wire Wire Line
	6800 2400 6900 2400
$Comp
L rs485_socket-rescue:+12V-power #PWR019
U 1 1 5D56BE41
P 6900 2650
F 0 "#PWR019" H 6900 2500 50  0001 C CNN
F 1 "+12V" V 6915 2778 50  0000 L CNN
F 2 "" H 6900 2650 50  0001 C CNN
F 3 "" H 6900 2650 50  0001 C CNN
	1    6900 2650
	-1   0    0    1   
$EndComp
$Comp
L rs485_socket-rescue:GND-power #PWR014
U 1 1 5D56DCCC
P 6200 2750
F 0 "#PWR014" H 6200 2500 50  0001 C CNN
F 1 "GND" H 6205 2577 50  0000 C CNN
F 2 "" H 6200 2750 50  0001 C CNN
F 3 "" H 6200 2750 50  0001 C CNN
	1    6200 2750
	1    0    0    -1  
$EndComp
Wire Wire Line
	6200 2400 6200 2550
$Comp
L rs485_socket-rescue:+12V-power #PWR033
U 1 1 5D56E3A7
P 9350 900
F 0 "#PWR033" H 9350 750 50  0001 C CNN
F 1 "+12V" V 9365 1028 50  0000 L CNN
F 2 "" H 9350 900 50  0001 C CNN
F 3 "" H 9350 900 50  0001 C CNN
	1    9350 900 
	1    0    0    -1  
$EndComp
Connection ~ 10250 1300
Wire Wire Line
	9150 1300 9750 1300
$Comp
L rs485_socket-rescue:D_Schottky-Device D3
U 1 1 5D5724E3
P 9750 1450
F 0 "D3" V 9704 1529 50  0000 L CNN
F 1 "D_Sht" V 9795 1529 50  0000 L CNN
F 2 "Diode_SMD:D_SOD-123" H 9750 1450 50  0001 C CNN
F 3 "~" H 9750 1450 50  0001 C CNN
	1    9750 1450
	0    1    1    0   
$EndComp
$Comp
L rs485_socket-rescue:GND-power #PWR036
U 1 1 5D5732CD
P 9750 1600
F 0 "#PWR036" H 9750 1350 50  0001 C CNN
F 1 "GND" H 9755 1427 50  0000 C CNN
F 2 "" H 9750 1600 50  0001 C CNN
F 3 "" H 9750 1600 50  0001 C CNN
	1    9750 1600
	1    0    0    -1  
$EndComp
Wire Wire Line
	10250 1300 10550 1300
Connection ~ 10550 1300
Wire Wire Line
	8900 2100 10550 2100
$Comp
L rs485_socket-rescue:C-Device C12
U 1 1 5D57A5A5
P 9350 1600
F 0 "C12" H 9465 1646 50  0000 L CNN
F 1 "4.7uF" H 9465 1555 50  0000 L CNN
F 2 "Capacitor_SMD:C_1206_3216Metric" H 9388 1450 50  0001 C CNN
F 3 "~" H 9350 1600 50  0001 C CNN
	1    9350 1600
	1    0    0    -1  
$EndComp
$Comp
L rs485_socket-rescue:GND-power #PWR034
U 1 1 5D57CC69
P 9350 1750
F 0 "#PWR034" H 9350 1500 50  0001 C CNN
F 1 "GND" H 9355 1577 50  0000 C CNN
F 2 "" H 9350 1750 50  0001 C CNN
F 3 "" H 9350 1750 50  0001 C CNN
	1    9350 1750
	1    0    0    -1  
$EndComp
Connection ~ 9750 1300
Connection ~ 9150 1300
Wire Wire Line
	9150 1450 9350 1450
Wire Wire Line
	9350 1450 9350 900 
Connection ~ 9350 1450
$Comp
L rs485_socket-rescue:+12V-power #PWR016
U 1 1 5D582207
P 6800 1050
F 0 "#PWR016" H 6800 900 50  0001 C CNN
F 1 "+12V" H 6815 1223 50  0000 C CNN
F 2 "" H 6800 1050 50  0001 C CNN
F 3 "" H 6800 1050 50  0001 C CNN
	1    6800 1050
	1    0    0    -1  
$EndComp
$Comp
L rs485_socket-rescue:R-Device R6
U 1 1 5D58225D
P 6800 1300
F 0 "R6" H 6870 1346 50  0000 L CNN
F 1 "2K" H 6870 1255 50  0000 L CNN
F 2 "Resistor_SMD:R_0805_2012Metric" V 6730 1300 50  0001 C CNN
F 3 "~" H 6800 1300 50  0001 C CNN
	1    6800 1300
	1    0    0    -1  
$EndComp
Wire Wire Line
	6800 1050 6800 1150
Wire Wire Line
	6200 1450 6200 1600
$Comp
L rs485_socket-rescue:GND-power #PWR015
U 1 1 5D58305F
P 6450 1450
F 0 "#PWR015" H 6450 1200 50  0001 C CNN
F 1 "GND" H 6455 1277 50  0000 C CNN
F 2 "" H 6450 1450 50  0001 C CNN
F 3 "" H 6450 1450 50  0001 C CNN
	1    6450 1450
	1    0    0    -1  
$EndComp
Wire Wire Line
	6300 1600 6300 1450
Wire Wire Line
	6300 1450 6450 1450
Wire Wire Line
	6900 1450 6900 1600
Wire Wire Line
	6900 1450 7050 1450
$Comp
L rs485_socket-rescue:R-Device R18
U 1 1 5D58AA1C
P 9200 2350
F 0 "R18" H 9270 2396 50  0000 L CNN
F 1 "9.1K" H 9270 2305 50  0000 L CNN
F 2 "Resistor_SMD:R_0805_2012Metric" V 9130 2350 50  0001 C CNN
F 3 "~" H 9200 2350 50  0001 C CNN
	1    9200 2350
	1    0    0    -1  
$EndComp
$Comp
L rs485_socket-rescue:R-Device R19
U 1 1 5D58AAC7
P 9550 2350
F 0 "R19" H 9620 2396 50  0000 L CNN
F 1 "24K" H 9620 2305 50  0000 L CNN
F 2 "Resistor_SMD:R_0805_2012Metric" V 9480 2350 50  0001 C CNN
F 3 "~" H 9550 2350 50  0001 C CNN
	1    9550 2350
	1    0    0    -1  
$EndComp
Wire Wire Line
	9150 1600 9200 1600
Wire Wire Line
	9200 1600 9200 2200
Connection ~ 9200 2200
$Comp
L rs485_socket-rescue:+12V-power #PWR035
U 1 1 5D58BBA5
P 9550 2500
F 0 "#PWR035" H 9550 2350 50  0001 C CNN
F 1 "+12V" H 9565 2673 50  0000 C CNN
F 2 "" H 9550 2500 50  0001 C CNN
F 3 "" H 9550 2500 50  0001 C CNN
	1    9550 2500
	-1   0    0    1   
$EndComp
$Comp
L rs485_socket-rescue:GND-power #PWR032
U 1 1 5D58BC3A
P 9200 2500
F 0 "#PWR032" H 9200 2250 50  0001 C CNN
F 1 "GND" H 9205 2327 50  0000 C CNN
F 2 "" H 9200 2500 50  0001 C CNN
F 3 "" H 9200 2500 50  0001 C CNN
	1    9200 2500
	1    0    0    -1  
$EndComp
Text GLabel 9650 2200 2    50   Input ~ 0
12V_EN
Connection ~ 9550 2200
Wire Wire Line
	9550 2200 9650 2200
Wire Wire Line
	9200 2200 9550 2200
Wire Wire Line
	6300 2400 6300 2550
Wire Wire Line
	6300 2550 6200 2550
$Comp
L rs485_socket-rescue:SP3485EN-Interface_UART U2
U 1 1 5D59509F
P 4650 3850
F 0 "U2" H 4650 4428 50  0000 R CNN
F 1 "SP3485EN" H 4650 4337 50  0000 R CNN
F 2 "Package_SO:SOIC-8_3.9x4.9mm_P1.27mm" H 5700 3500 50  0001 C CIN
F 3 "http://www.icbase.com/pdf/SPX/SPX00480106.pdf" H 4650 3850 50  0001 C CNN
	1    4650 3850
	1    0    0    -1  
$EndComp
$Comp
L rs485_socket-rescue:+3.3V-power #PWR011
U 1 1 5D595156
P 4650 3100
F 0 "#PWR011" H 4650 2950 50  0001 C CNN
F 1 "+3.3V" H 4665 3273 50  0000 C CNN
F 2 "" H 4650 3100 50  0001 C CNN
F 3 "" H 4650 3100 50  0001 C CNN
	1    4650 3100
	1    0    0    -1  
$EndComp
$Comp
L rs485_socket-rescue:GND-power #PWR012
U 1 1 5D5951B8
P 4650 4250
F 0 "#PWR012" H 4650 4000 50  0001 C CNN
F 1 "GND" H 4655 4077 50  0000 C CNN
F 2 "" H 4650 4250 50  0001 C CNN
F 3 "" H 4650 4250 50  0001 C CNN
	1    4650 4250
	1    0    0    -1  
$EndComp
Wire Wire Line
	4650 3450 4650 3100
Text GLabel 4250 4050 0    50   Input ~ 0
UART_TX
Text GLabel 3100 3350 2    50   Output ~ 0
UART_TX
Text GLabel 3100 3450 2    50   Input ~ 0
UART_RX
Text GLabel 5050 3750 2    50   BiDi ~ 0
RS_A
Text GLabel 5050 3950 2    50   BiDi ~ 0
RS_B
Text GLabel 4150 3850 0    50   Input ~ 0
USART_DE
Text GLabel 3100 3650 2    50   Output ~ 0
USART_DE
Text GLabel 6400 2700 3    50   BiDi ~ 0
RS_A
Text GLabel 6500 2700 3    50   BiDi ~ 0
RS_B
Wire Wire Line
	6400 2400 6400 2500
Wire Wire Line
	6500 2400 6500 2600
Wire Wire Line
	6400 2500 6600 2500
Wire Wire Line
	6600 2500 6600 2400
Connection ~ 6400 2500
Wire Wire Line
	6400 2500 6400 2700
Wire Wire Line
	6500 2600 6700 2600
Wire Wire Line
	6700 2600 6700 2400
Connection ~ 6500 2600
Wire Wire Line
	6500 2600 6500 2700
Text GLabel 1800 3750 0    50   Output ~ 0
RS_ACT_LED
Wire Wire Line
	6900 2400 6900 2650
Connection ~ 6900 2400
Wire Wire Line
	6200 2550 6200 2750
Connection ~ 6200 2550
Text GLabel 1800 3650 0    50   Output ~ 0
RELAY
Text GLabel 3100 3050 2    50   Input ~ 0
AC_I_DIFF
Text GLabel 3100 3150 2    50   Input ~ 0
AC_I
Text GLabel 1800 2450 0    50   Input ~ 0
TH1
Text GLabel 1800 2550 0    50   Input ~ 0
TH2
$Comp
L rs485_socket-rescue:ZMCT102-User Tr2
U 1 1 5D5C7D6D
P 9600 4650
F 0 "Tr2" H 9877 4451 50  0000 L CNN
F 1 "ZMCT102" H 9877 4360 50  0000 L CNN
F 2 "Transformer_THT:ZEMCT132" H 9600 4650 50  0001 C CNN
F 3 "" H 9600 4650 50  0001 C CNN
	1    9600 4650
	1    0    0    1   
$EndComp
$Comp
L rs485_socket-rescue:R-Device R20
U 1 1 5D5CFB2B
P 10050 3200
F 0 "R20" V 9843 3200 50  0000 C CNN
F 1 "56K" V 9934 3200 50  0000 C CNN
F 2 "Resistor_SMD:R_0805_2012Metric" V 9980 3200 50  0001 C CNN
F 3 "~" H 10050 3200 50  0001 C CNN
	1    10050 3200
	0    1    1    0   
$EndComp
Text GLabel 9100 4750 3    50   Input ~ 0
AC_I
Text GLabel 9100 3650 3    50   Input ~ 0
AC_V
$Comp
L rs485_socket-rescue:R-Device R16
U 1 1 5D581738
P 9100 4450
F 0 "R16" H 9170 4496 50  0000 L CNN
F 1 "75" H 9170 4405 50  0000 L CNN
F 2 "Resistor_SMD:R_0805_2012Metric" V 9030 4450 50  0001 C CNN
F 3 "~" H 9100 4450 50  0001 C CNN
	1    9100 4450
	1    0    0    -1  
$EndComp
Wire Wire Line
	9100 4300 9350 4300
Wire Wire Line
	9350 4500 9350 4600
Wire Wire Line
	9350 4600 9100 4600
Wire Wire Line
	9100 4750 9100 4600
Connection ~ 9100 4600
$Comp
L rs485_socket-rescue:R-Device R15
U 1 1 5D590112
P 9100 3350
F 0 "R15" H 9170 3396 50  0000 L CNN
F 1 "680" H 9170 3305 50  0000 L CNN
F 2 "Resistor_SMD:R_0805_2012Metric" V 9030 3350 50  0001 C CNN
F 3 "~" H 9100 3350 50  0001 C CNN
	1    9100 3350
	1    0    0    -1  
$EndComp
Wire Wire Line
	9100 3200 9350 3200
Wire Wire Line
	9350 3500 9100 3500
Wire Wire Line
	9100 3650 9100 3500
Connection ~ 9100 3500
Wire Wire Line
	9350 3500 9350 3400
$Comp
L rs485_socket-rescue:Screw_Terminal_01x01-Connector J5
U 1 1 5D57F701
P 10800 4600
F 0 "J5" H 10880 4642 50  0000 L CNN
F 1 "N" H 10880 4551 50  0000 L CNN
F 2 "Connector_Pin:Pin_D1.4mm_L8.5mm_W2.8mm_FlatFork" H 10800 4600 50  0001 C CNN
F 3 "~" H 10800 4600 50  0001 C CNN
	1    10800 4600
	1    0    0    -1  
$EndComp
$Comp
L rs485_socket-rescue:Screw_Terminal_01x01-Connector J4
U 1 1 5D57F7D4
P 10800 4400
F 0 "J4" H 10880 4442 50  0000 L CNN
F 1 "L" H 10880 4351 50  0000 L CNN
F 2 "Connector_Pin:Pin_D1.4mm_L8.5mm_W2.8mm_FlatFork" H 10800 4400 50  0001 C CNN
F 3 "~" H 10800 4400 50  0001 C CNN
	1    10800 4400
	1    0    0    -1  
$EndComp
$Comp
L rs485_socket-rescue:Screw_Terminal_01x02-Connector J6
U 1 1 5D589F18
P 10850 3650
F 0 "J6" H 10929 3642 50  0000 L CNN
F 1 "Line" H 10929 3551 50  0000 L CNN
F 2 "Connector_Pin:WJ128V-7.5-2" H 10850 3650 50  0001 C CNN
F 3 "~" H 10850 3650 50  0001 C CNN
	1    10850 3650
	1    0    0    -1  
$EndComp
$Comp
L rs485_socket-rescue:ZMCT102-User Tr3
U 1 1 5D58E3E9
P 9600 5400
F 0 "Tr3" H 9877 5201 50  0000 L CNN
F 1 "ZMCT102" H 9877 5110 50  0000 L CNN
F 2 "Transformer_THT:ZEMCT132" H 9600 5400 50  0001 C CNN
F 3 "" H 9600 5400 50  0001 C CNN
	1    9600 5400
	1    0    0    -1  
$EndComp
$Comp
L rs485_socket-rescue:R-Device R12
U 1 1 5D58E3F0
P 8400 4450
F 0 "R12" H 8470 4496 50  0000 L CNN
F 1 "1K" H 8470 4405 50  0000 L CNN
F 2 "Resistor_SMD:R_0805_2012Metric" V 8330 4450 50  0001 C CNN
F 3 "~" H 8400 4450 50  0001 C CNN
	1    8400 4450
	1    0    0    -1  
$EndComp
$Comp
L rs485_socket-rescue:R-Device R11
U 1 1 5D58E3F7
P 8400 4150
F 0 "R11" H 8470 4196 50  0000 L CNN
F 1 "1K" H 8470 4105 50  0000 L CNN
F 2 "Resistor_SMD:R_0805_2012Metric" V 8330 4150 50  0001 C CNN
F 3 "~" H 8400 4150 50  0001 C CNN
	1    8400 4150
	1    0    0    -1  
$EndComp
$Comp
L rs485_socket-rescue:+3.3V-power #PWR027
U 1 1 5D58E3FE
P 8400 4000
F 0 "#PWR027" H 8400 3850 50  0001 C CNN
F 1 "+3.3V" H 8415 4173 50  0000 C CNN
F 2 "" H 8400 4000 50  0001 C CNN
F 3 "" H 8400 4000 50  0001 C CNN
	1    8400 4000
	1    0    0    -1  
$EndComp
$Comp
L rs485_socket-rescue:GND-power #PWR028
U 1 1 5D58E404
P 8400 4600
F 0 "#PWR028" H 8400 4350 50  0001 C CNN
F 1 "GND" H 8405 4427 50  0000 C CNN
F 2 "" H 8400 4600 50  0001 C CNN
F 3 "" H 8400 4600 50  0001 C CNN
	1    8400 4600
	1    0    0    -1  
$EndComp
Text GLabel 7550 5650 0    50   Input ~ 0
AC_I_DIFF
$Comp
L rs485_socket-rescue:R-Device R17
U 1 1 5D58E40C
P 9100 5700
F 0 "R17" H 9170 5746 50  0000 L CNN
F 1 "R" H 9170 5655 50  0000 L CNN
F 2 "Resistor_SMD:R_0805_2012Metric" V 9030 5700 50  0001 C CNN
F 3 "~" H 9100 5700 50  0001 C CNN
	1    9100 5700
	1    0    0    -1  
$EndComp
Wire Wire Line
	9100 5550 9350 5550
Wire Wire Line
	9350 5750 9350 5850
Wire Wire Line
	9350 5850 9100 5850
Wire Wire Line
	7550 5650 7700 5650
$Comp
L rs485_socket-rescue:RTE2xxxx-Relay K1
U 1 1 5D5A96EB
P 7200 3800
F 0 "K1" H 7830 3846 50  0000 L CNN
F 1 "RT314012" H 7830 3755 50  0000 L CNN
F 2 "Relay_THT:Relay_DPDT_Schrack-RT2-FormC_RM5mm" H 7200 3800 50  0001 C CNN
F 3 "http://www.te.com/commerce/DocumentDelivery/DDEController?Action=showdoc&DocId=Data+Sheet%7FRT2%7F1014%7Fpdf%7FEnglish%7FENG_DS_RT2_1014.pdf%7F6-1393243-3" H 7850 3950 50  0001 C CNN
	1    7200 3800
	1    0    0    -1  
$EndComp
Text GLabel 10600 4400 0    50   Input ~ 0
SOC1
Text GLabel 10600 4600 0    50   Input ~ 0
N
Wire Wire Line
	7600 4100 7600 4250
Wire Wire Line
	7200 4100 7200 4250
Wire Wire Line
	7200 4250 7600 4250
Text GLabel 7850 4250 2    50   Input ~ 0
SOC1
Wire Wire Line
	7600 4250 7850 4250
Connection ~ 7600 4250
Text GLabel 7850 3350 2    50   Input ~ 0
L
Wire Wire Line
	7100 3500 7100 3350
Wire Wire Line
	7100 3350 7500 3350
Wire Wire Line
	7500 3500 7500 3350
Connection ~ 7500 3350
Wire Wire Line
	7500 3350 7850 3350
$Comp
L rs485_socket-rescue:S9013-User Q1
U 1 1 5D5CA3FA
P 6700 4500
F 0 "Q1" H 6891 4546 50  0000 L CNN
F 1 "S9013" H 6891 4455 50  0000 L CNN
F 2 "Package_TO_SOT_SMD:SOT-23" H 6900 4425 50  0001 L CIN
F 3 "http://www.fairchildsemi.com/ds/BC/BC817.pdf" H 6700 4500 50  0001 L CNN
	1    6700 4500
	1    0    0    -1  
$EndComp
Wire Wire Line
	6800 4300 6800 4200
$Comp
L rs485_socket-rescue:1N4148W-Diode D2
U 1 1 5D5D131F
P 6300 3450
F 0 "D2" V 6254 3530 50  0000 L CNN
F 1 "1N4148W" V 6345 3530 50  0000 L TNN
F 2 "Diode_SMD:D_SOD-123" H 6300 3275 50  0001 C CNN
F 3 "https://www.vishay.com/docs/85748/1n4148w.pdf" H 6300 3450 50  0001 C CNN
	1    6300 3450
	0    1    1    0   
$EndComp
$Comp
L rs485_socket-rescue:LED-Device D1
U 1 1 5D5D157D
P 6050 3800
F 0 "D1" V 5995 3878 50  0000 L CNN
F 1 "LED" V 6086 3878 50  0000 L CNN
F 2 "Diode_SMD:D_0805_2012Metric" H 6050 3800 50  0001 C CNN
F 3 "~" H 6050 3800 50  0001 C CNN
	1    6050 3800
	0    -1   -1   0   
$EndComp
$Comp
L rs485_socket-rescue:R-Device R3
U 1 1 5D5D16BF
P 6050 3500
F 0 "R3" H 6120 3546 50  0000 L CNN
F 1 "1K" H 6120 3455 50  0000 L CNN
F 2 "Resistor_SMD:R_0805_2012Metric" V 5980 3500 50  0001 C CNN
F 3 "~" H 6050 3500 50  0001 C CNN
	1    6050 3500
	1    0    0    -1  
$EndComp
Wire Wire Line
	6050 3950 6050 4200
Connection ~ 6800 4200
Wire Wire Line
	6800 4200 6800 4100
Wire Wire Line
	6300 3300 6800 3300
Wire Wire Line
	6800 3300 6800 3500
Wire Wire Line
	6050 3350 6050 3300
Wire Wire Line
	6300 3600 6300 4200
Wire Wire Line
	6300 4200 6800 4200
Wire Wire Line
	6050 3300 6300 3300
Wire Wire Line
	6050 4200 6300 4200
Connection ~ 6300 4200
$Comp
L rs485_socket-rescue:GND-power #PWR018
U 1 1 5D608B86
P 6800 4700
F 0 "#PWR018" H 6800 4450 50  0001 C CNN
F 1 "GND" H 6805 4527 50  0000 C CNN
F 2 "" H 6800 4700 50  0001 C CNN
F 3 "" H 6800 4700 50  0001 C CNN
	1    6800 4700
	1    0    0    -1  
$EndComp
$Comp
L rs485_socket-rescue:R-Device R5
U 1 1 5D608C98
P 6350 4500
F 0 "R5" V 6143 4500 50  0000 C CNN
F 1 "33K" V 6234 4500 50  0000 C CNN
F 2 "Resistor_SMD:R_0805_2012Metric" V 6280 4500 50  0001 C CNN
F 3 "~" H 6350 4500 50  0001 C CNN
	1    6350 4500
	0    1    1    0   
$EndComp
Text GLabel 10650 3650 0    50   Input ~ 0
L
Text GLabel 10650 3750 0    50   Input ~ 0
N
Text GLabel 10800 3200 2    50   Input ~ 0
L
Wire Wire Line
	9850 3200 9900 3200
$Comp
L rs485_socket-rescue:ZMPT107-User Tr1
U 1 1 5D5BED5E
P 9600 3550
F 0 "Tr1" H 9600 3625 50  0000 C CNN
F 1 "ZMPT107" H 9600 3534 50  0000 C CNN
F 2 "Transformer_THT:ZMPT107" H 9600 3550 50  0001 C CNN
F 3 "" H 9600 3550 50  0001 C CNN
	1    9600 3550
	1    0    0    1   
$EndComp
Text GLabel 10200 3400 2    50   Input ~ 0
N
Wire Wire Line
	9850 3400 10200 3400
Text GLabel 6200 4500 0    50   Input ~ 0
RELAY
$Comp
L rs485_socket-rescue:+12V-power #PWR017
U 1 1 5D628706
P 6800 3300
F 0 "#PWR017" H 6800 3150 50  0001 C CNN
F 1 "+12V" H 6815 3473 50  0000 C CNN
F 2 "" H 6800 3300 50  0001 C CNN
F 3 "" H 6800 3300 50  0001 C CNN
	1    6800 3300
	1    0    0    -1  
$EndComp
Text GLabel 3100 2950 2    50   Input ~ 0
AC_V
Text GLabel 3100 3850 2    50   Input ~ 0
SYS_SWCLK
$Comp
L rs485_socket-rescue:Conn_01x04-Connector_Generic J1
U 1 1 5D5A5847
P 2700 5200
F 0 "J1" H 2780 5192 50  0000 L CNN
F 1 "SWD" H 2780 5101 50  0000 L CNN
F 2 "Connector_PinHeader_2.54mm:PinHeader_1x04_P2.54mm_Vertical" H 2700 5200 50  0001 C CNN
F 3 "~" H 2700 5200 50  0001 C CNN
	1    2700 5200
	1    0    0    -1  
$EndComp
Text GLabel 2500 5200 0    50   Input ~ 0
SYS_SWCLK
Text GLabel 2500 5400 0    50   Input ~ 0
SYS_SWDIO
$Comp
L rs485_socket-rescue:GND-power #PWR03
U 1 1 5D5A5B3A
P 2000 5450
F 0 "#PWR03" H 2000 5200 50  0001 C CNN
F 1 "GND" H 2005 5277 50  0000 C CNN
F 2 "" H 2000 5450 50  0001 C CNN
F 3 "" H 2000 5450 50  0001 C CNN
	1    2000 5450
	1    0    0    -1  
$EndComp
Wire Wire Line
	2500 5300 2000 5300
$Comp
L rs485_socket-rescue:+3.3V-power #PWR02
U 1 1 5D5ACAC1
P 2000 5100
F 0 "#PWR02" H 2000 4950 50  0001 C CNN
F 1 "+3.3V" H 2015 5273 50  0000 C CNN
F 2 "" H 2000 5100 50  0001 C CNN
F 3 "" H 2000 5100 50  0001 C CNN
	1    2000 5100
	1    0    0    -1  
$EndComp
Wire Wire Line
	2500 5100 2000 5100
Wire Wire Line
	2000 5300 2000 5450
Text GLabel 3100 3750 2    50   Input ~ 0
SYS_SWDIO
$Comp
L rs485_socket-rescue:C-Device C3
U 1 1 5D5C1577
P 3950 1000
F 0 "C3" H 4065 1046 50  0000 L CNN
F 1 "1uF" H 4065 955 50  0000 L CNN
F 2 "Capacitor_SMD:C_0805_2012Metric" H 3988 850 50  0001 C CNN
F 3 "~" H 3950 1000 50  0001 C CNN
	1    3950 1000
	1    0    0    -1  
$EndComp
$Comp
L rs485_socket-rescue:C-Device C4
U 1 1 5D5C1664
P 4300 1000
F 0 "C4" H 4415 1046 50  0000 L CNN
F 1 "1uF" H 4415 955 50  0000 L CNN
F 2 "Capacitor_SMD:C_0805_2012Metric" H 4338 850 50  0001 C CNN
F 3 "~" H 4300 1000 50  0001 C CNN
	1    4300 1000
	1    0    0    -1  
$EndComp
$Comp
L rs485_socket-rescue:C-Device C5
U 1 1 5D5C1736
P 4650 1000
F 0 "C5" H 4765 1046 50  0000 L CNN
F 1 "1uF" H 4765 955 50  0000 L CNN
F 2 "Capacitor_SMD:C_0805_2012Metric" H 4688 850 50  0001 C CNN
F 3 "~" H 4650 1000 50  0001 C CNN
	1    4650 1000
	1    0    0    -1  
$EndComp
$Comp
L rs485_socket-rescue:C-Device C6
U 1 1 5D5C1801
P 5000 1000
F 0 "C6" H 5115 1046 50  0000 L CNN
F 1 "1uF" H 5115 955 50  0000 L CNN
F 2 "Capacitor_SMD:C_0805_2012Metric" H 5038 850 50  0001 C CNN
F 3 "~" H 5000 1000 50  0001 C CNN
	1    5000 1000
	1    0    0    -1  
$EndComp
$Comp
L rs485_socket-rescue:C-Device C7
U 1 1 5D5C18E7
P 5350 1000
F 0 "C7" H 5465 1046 50  0000 L CNN
F 1 "1uF" H 5465 955 50  0000 L CNN
F 2 "Capacitor_SMD:C_0805_2012Metric" H 5388 850 50  0001 C CNN
F 3 "~" H 5350 1000 50  0001 C CNN
	1    5350 1000
	1    0    0    -1  
$EndComp
Wire Wire Line
	3950 850  4300 850 
Connection ~ 4300 850 
Wire Wire Line
	4300 850  4650 850 
Connection ~ 4650 850 
Wire Wire Line
	4650 850  5000 850 
Connection ~ 5000 850 
Wire Wire Line
	5000 850  5350 850 
Wire Wire Line
	3950 1150 4300 1150
Connection ~ 4300 1150
Wire Wire Line
	4300 1150 4650 1150
Connection ~ 4650 1150
Wire Wire Line
	4650 1150 5000 1150
Connection ~ 5000 1150
Wire Wire Line
	5000 1150 5350 1150
$Comp
L rs485_socket-rescue:+3.3V-power #PWR07
U 1 1 5D5D7A46
P 4650 850
F 0 "#PWR07" H 4650 700 50  0001 C CNN
F 1 "+3.3V" H 4665 1023 50  0000 C CNN
F 2 "" H 4650 850 50  0001 C CNN
F 3 "" H 4650 850 50  0001 C CNN
	1    4650 850 
	1    0    0    -1  
$EndComp
$Comp
L rs485_socket-rescue:GND-power #PWR08
U 1 1 5D5D7AFC
P 4650 1150
F 0 "#PWR08" H 4650 900 50  0001 C CNN
F 1 "GND" H 4655 977 50  0000 C CNN
F 2 "" H 4650 1150 50  0001 C CNN
F 3 "" H 4650 1150 50  0001 C CNN
	1    4650 1150
	1    0    0    -1  
$EndComp
$Comp
L rs485_socket-rescue:R-Device R1
U 1 1 5D5EEF1D
P 4500 1850
F 0 "R1" H 4570 1896 50  0000 L CNN
F 1 "10K" H 4570 1805 50  0000 L CNN
F 2 "Capacitor_SMD:C_0805_2012Metric" V 4430 1850 50  0001 C CNN
F 3 "~" H 4500 1850 50  0001 C CNN
	1    4500 1850
	1    0    0    -1  
$EndComp
$Comp
L rs485_socket-rescue:R-Device R2
U 1 1 5D5EEFF5
P 4800 1850
F 0 "R2" H 4870 1896 50  0000 L CNN
F 1 "10K" H 4870 1805 50  0000 L CNN
F 2 "Capacitor_SMD:C_0805_2012Metric" V 4730 1850 50  0001 C CNN
F 3 "~" H 4800 1850 50  0001 C CNN
	1    4800 1850
	1    0    0    -1  
$EndComp
$Comp
L rs485_socket-rescue:Thermistor-Device TH1
U 1 1 5D5EF128
P 4500 2200
F 0 "TH1" H 4605 2246 50  0000 L CNN
F 1 "10K" H 4605 2155 50  0000 L CNN
F 2 "Connector_PinHeader_2.54mm:PinHeader_1x02_P2.54mm_Vertical" H 4500 2200 50  0001 C CNN
F 3 "~" H 4500 2200 50  0001 C CNN
	1    4500 2200
	1    0    0    -1  
$EndComp
$Comp
L rs485_socket-rescue:Thermistor-Device TH2
U 1 1 5D5EF2D0
P 4800 2200
F 0 "TH2" H 4905 2246 50  0000 L CNN
F 1 "10K" H 4905 2155 50  0000 L CNN
F 2 "Connector_PinHeader_2.54mm:PinHeader_1x02_P2.54mm_Vertical" H 4800 2200 50  0001 C CNN
F 3 "~" H 4800 2200 50  0001 C CNN
	1    4800 2200
	1    0    0    -1  
$EndComp
Wire Wire Line
	4500 1700 4650 1700
Wire Wire Line
	4500 2400 4650 2400
$Comp
L rs485_socket-rescue:+3.3V-power #PWR09
U 1 1 5D5F569F
P 4650 1700
F 0 "#PWR09" H 4650 1550 50  0001 C CNN
F 1 "+3.3V" H 4665 1873 50  0000 C CNN
F 2 "" H 4650 1700 50  0001 C CNN
F 3 "" H 4650 1700 50  0001 C CNN
	1    4650 1700
	1    0    0    -1  
$EndComp
Connection ~ 4650 1700
Wire Wire Line
	4650 1700 4800 1700
$Comp
L rs485_socket-rescue:GND-power #PWR010
U 1 1 5D5F5763
P 4650 2400
F 0 "#PWR010" H 4650 2150 50  0001 C CNN
F 1 "GND" H 4655 2227 50  0000 C CNN
F 2 "" H 4650 2400 50  0001 C CNN
F 3 "" H 4650 2400 50  0001 C CNN
	1    4650 2400
	1    0    0    -1  
$EndComp
Connection ~ 4650 2400
Wire Wire Line
	4650 2400 4800 2400
Text GLabel 5000 2000 2    50   Input ~ 0
TH1
Text GLabel 4350 2000 0    50   Input ~ 0
TH2
Wire Wire Line
	4350 2000 4500 2000
Connection ~ 4500 2000
Wire Wire Line
	4800 2000 5000 2000
Connection ~ 4800 2000
Text GLabel 1800 3450 0    50   Output ~ 0
UART3_TX
Text GLabel 1800 3550 0    50   Input ~ 0
UART3_RX
$Comp
L rs485_socket-rescue:Conn_01x04-Connector_Generic J2
U 1 1 5D64413B
P 2700 6150
F 0 "J2" H 2780 6142 50  0000 L CNN
F 1 "DEBUG" H 2780 6051 50  0000 L CNN
F 2 "Connector_PinHeader_2.54mm:PinHeader_1x04_P2.54mm_Vertical" H 2700 6150 50  0001 C CNN
F 3 "~" H 2700 6150 50  0001 C CNN
	1    2700 6150
	1    0    0    1   
$EndComp
$Comp
L rs485_socket-rescue:GND-power #PWR06
U 1 1 5D647A4E
P 2500 6250
F 0 "#PWR06" H 2500 6000 50  0001 C CNN
F 1 "GND" H 2505 6077 50  0000 C CNN
F 2 "" H 2500 6250 50  0001 C CNN
F 3 "" H 2500 6250 50  0001 C CNN
	1    2500 6250
	1    0    0    -1  
$EndComp
Text GLabel 2500 6050 0    50   Input ~ 0
UART3_RX
Text GLabel 2500 6150 0    50   Input ~ 0
UART3_TX
NoConn ~ 2500 5950
NoConn ~ 7300 3500
NoConn ~ 7700 3500
$Comp
L rs485_socket-rescue:R-Device R21
U 1 1 5D65C133
P 10350 3200
F 0 "R21" V 10143 3200 50  0000 C CNN
F 1 "56K" V 10234 3200 50  0000 C CNN
F 2 "Resistor_SMD:R_0805_2012Metric" V 10280 3200 50  0001 C CNN
F 3 "~" H 10350 3200 50  0001 C CNN
	1    10350 3200
	0    1    1    0   
$EndComp
Wire Wire Line
	8400 4300 8800 4300
Connection ~ 8800 4300
Wire Wire Line
	8800 4300 9100 4300
$Comp
L rs485_socket-rescue:C-Device C10
U 1 1 5D694355
P 8800 4450
F 0 "C10" H 8915 4496 50  0000 L CNN
F 1 "1uF" H 8915 4405 50  0000 L CNN
F 2 "Capacitor_SMD:C_0805_2012Metric" H 8838 4300 50  0001 C CNN
F 3 "~" H 8800 4450 50  0001 C CNN
	1    8800 4450
	1    0    0    -1  
$EndComp
$Comp
L rs485_socket-rescue:GND-power #PWR030
U 1 1 5D694414
P 8800 4600
F 0 "#PWR030" H 8800 4350 50  0001 C CNN
F 1 "GND" H 8805 4427 50  0000 C CNN
F 2 "" H 8800 4600 50  0001 C CNN
F 3 "" H 8800 4600 50  0001 C CNN
	1    8800 4600
	1    0    0    -1  
$EndComp
Connection ~ 6800 3300
Connection ~ 6300 3300
$Comp
L rs485_socket-rescue:R-Device R7
U 1 1 5D6ED120
P 7900 5250
F 0 "R7" V 8107 5250 50  0000 C CNN
F 1 "R" V 8016 5250 50  0000 C CNN
F 2 "Resistor_SMD:R_0805_2012Metric" V 7830 5250 50  0001 C CNN
F 3 "~" H 7900 5250 50  0001 C CNN
	1    7900 5250
	0    1    -1   0   
$EndComp
$Comp
L rs485_socket-rescue:R-Device R8
U 1 1 5D6F7EFE
P 7900 6100
F 0 "R8" H 7970 6146 50  0000 L CNN
F 1 "R" H 7970 6055 50  0000 L CNN
F 2 "Resistor_SMD:R_0805_2012Metric" V 7830 6100 50  0001 C CNN
F 3 "~" H 7900 6100 50  0001 C CNN
	1    7900 6100
	-1   0    0    -1  
$EndComp
$Comp
L rs485_socket-rescue:R-Device R14
U 1 1 5D6F7FCD
P 8500 5900
F 0 "R14" H 8570 5946 50  0000 L CNN
F 1 "R" H 8570 5855 50  0000 L CNN
F 2 "Resistor_SMD:R_0805_2012Metric" V 8430 5900 50  0001 C CNN
F 3 "~" H 8500 5900 50  0001 C CNN
	1    8500 5900
	-1   0    0    -1  
$EndComp
$Comp
L rs485_socket-rescue:OP07-Amplifier_Operational U3
U 1 1 5D70E276
P 8000 5650
F 0 "U3" H 8000 6128 50  0000 R CNN
F 1 "OP07" H 8000 6037 50  0000 R CNN
F 2 "Package_SO:SOIC-8_3.9x4.9mm_P1.27mm" H 8050 5700 50  0001 C CNN
F 3 "http://www.analog.com/media/en/technical-documentation/data-sheets/OP07.pdf" H 8050 5800 50  0001 C CNN
	1    8000 5650
	-1   0    0    -1  
$EndComp
$Comp
L rs485_socket-rescue:GND-power #PWR029
U 1 1 5D7260D9
P 8500 6050
F 0 "#PWR029" H 8500 5800 50  0001 C CNN
F 1 "GND" H 8505 5877 50  0000 C CNN
F 2 "" H 8500 6050 50  0001 C CNN
F 3 "" H 8500 6050 50  0001 C CNN
	1    8500 6050
	-1   0    0    -1  
$EndComp
Wire Wire Line
	8500 5750 8300 5750
Wire Wire Line
	8050 5250 8500 5250
Wire Wire Line
	8500 5250 8500 5750
Connection ~ 8500 5750
Wire Wire Line
	7750 5250 7700 5250
Wire Wire Line
	7700 5250 7700 5650
$Comp
L rs485_socket-rescue:R-Device R9
U 1 1 5D748145
P 8000 6100
F 0 "R9" H 7930 6146 50  0000 R CNN
F 1 "R" H 7930 6055 50  0000 R CNN
F 2 "Resistor_SMD:R_0805_2012Metric" V 7930 6100 50  0001 C CNN
F 3 "~" H 8000 6100 50  0001 C CNN
	1    8000 6100
	-1   0    0    -1  
$EndComp
Connection ~ 9100 4300
Wire Wire Line
	8800 4300 8800 3200
Wire Wire Line
	8800 3200 9100 3200
Connection ~ 9100 3200
$Comp
L rs485_socket-rescue:GND-power #PWR023
U 1 1 5D7766D3
P 8100 6250
F 0 "#PWR023" H 8100 6000 50  0001 C CNN
F 1 "GND" H 8105 6077 50  0000 C CNN
F 2 "" H 8100 6250 50  0001 C CNN
F 3 "" H 8100 6250 50  0001 C CNN
	1    8100 6250
	1    0    0    -1  
$EndComp
Wire Wire Line
	8100 5950 8100 6250
$Comp
L rs485_socket-rescue:+3.3V-power #PWR022
U 1 1 5D77E1BF
P 8100 5150
F 0 "#PWR022" H 8100 5000 50  0001 C CNN
F 1 "+3.3V" H 8115 5323 50  0000 C CNN
F 2 "" H 8100 5150 50  0001 C CNN
F 3 "" H 8100 5150 50  0001 C CNN
	1    8100 5150
	1    0    0    -1  
$EndComp
Wire Wire Line
	8100 5150 8100 5350
Connection ~ 7700 5650
Wire Wire Line
	8300 5550 9100 5550
Connection ~ 9100 5550
Connection ~ 8400 4300
$Comp
L rs485_socket-rescue:GND-power #PWR031
U 1 1 5D7A5617
P 9100 5850
F 0 "#PWR031" H 9100 5600 50  0001 C CNN
F 1 "GND" H 9105 5677 50  0000 C CNN
F 2 "" H 9100 5850 50  0001 C CNN
F 3 "" H 9100 5850 50  0001 C CNN
	1    9100 5850
	1    0    0    -1  
$EndComp
Connection ~ 9100 5850
$Comp
L rs485_socket-rescue:+3.3V-power #PWR021
U 1 1 5D7A571D
P 7900 6250
F 0 "#PWR021" H 7900 6100 50  0001 C CNN
F 1 "+3.3V" H 7915 6423 50  0000 C CNN
F 2 "" H 7900 6250 50  0001 C CNN
F 3 "" H 7900 6250 50  0001 C CNN
	1    7900 6250
	-1   0    0    1   
$EndComp
Wire Wire Line
	8000 6250 7900 6250
Connection ~ 7900 6250
Text GLabel 4250 3650 0    50   Output ~ 0
UART_RX
Wire Wire Line
	4250 3750 4250 3850
Wire Wire Line
	4150 3850 4250 3850
Connection ~ 4250 3850
Wire Wire Line
	4250 3850 4250 3950
$Comp
L rs485_socket-rescue:C-Device C9
U 1 1 5E14671B
P 8400 3350
F 0 "C9" H 8515 3396 50  0000 L CNN
F 1 "4.7uF" H 8515 3305 50  0000 L CNN
F 2 "Capacitor_SMD:C_1206_3216Metric" H 8438 3200 50  0001 C CNN
F 3 "~" H 8400 3350 50  0001 C CNN
	1    8400 3350
	1    0    0    -1  
$EndComp
Wire Wire Line
	8800 3200 8400 3200
Connection ~ 8800 3200
$Comp
L power:GND #PWR026
U 1 1 5E150BBA
P 8400 3500
F 0 "#PWR026" H 8400 3250 50  0001 C CNN
F 1 "GND" H 8405 3327 50  0000 C CNN
F 2 "" H 8400 3500 50  0001 C CNN
F 3 "" H 8400 3500 50  0001 C CNN
	1    8400 3500
	1    0    0    -1  
$EndComp
$Comp
L rs485_socket-rescue:R-Device R22
U 1 1 5E16BE52
P 10650 3200
F 0 "R22" V 10443 3200 50  0000 C CNN
F 1 "56K" V 10534 3200 50  0000 C CNN
F 2 "Resistor_SMD:R_0805_2012Metric" V 10580 3200 50  0001 C CNN
F 3 "~" H 10650 3200 50  0001 C CNN
	1    10650 3200
	0    1    1    0   
$EndComp
$Comp
L Device:CP C14
U 1 1 5E33AAB4
P 10800 1650
F 0 "C14" H 10918 1696 50  0000 L CNN
F 1 "220uF" H 10918 1605 50  0000 L CNN
F 2 "Capacitor_THT:CP_Radial_D6.3mm_P2.50mm" H 10838 1500 50  0001 C CNN
F 3 "~" H 10800 1650 50  0001 C CNN
	1    10800 1650
	1    0    0    -1  
$EndComp
Wire Wire Line
	10550 1300 10800 1300
Wire Wire Line
	10800 1300 10800 1500
Wire Wire Line
	10550 900  10550 1300
$Comp
L power:GND #PWR039
U 1 1 5E35B13A
P 10800 1800
F 0 "#PWR039" H 10800 1550 50  0001 C CNN
F 1 "GND" H 10805 1627 50  0000 C CNN
F 2 "" H 10800 1800 50  0001 C CNN
F 3 "" H 10800 1800 50  0001 C CNN
	1    10800 1800
	1    0    0    -1  
$EndComp
$EndSCHEMATC
